First_session
…
mutate - to add new variables

filter - to subset the data

there are many other very useful dplyr verbs

All dplyr functions take as their first argument the data frame to manipulate, followed by one or more other arguments.

select

We can use the select() function to include or exclude certain variables (columns) from the data frame. For instance, if we are only interested in data to compare bill measurements between species on each island. The first argument in the select() function is the data frame to be manipulated, and the following arguments are the names of the variables we wish to select.

select(penguins, species, bill_length_mm, bill_depth_mm)

# A tibble: 344 × 3
   species bill_length_mm bill_depth_mm
   <fct>            <dbl>         <dbl>
 1 Adelie            39.1          18.7
 2 Adelie            39.5          17.4
 3 Adelie            40.3          18  
 4 Adelie            NA            NA  
 5 Adelie            36.7          19.3
 6 Adelie            39.3          20.6
 7 Adelie            38.9          17.8
 8 Adelie            39.2          19.6
 9 Adelie            34.1          18.1
10 Adelie            42            20.2
# … with 334 more rows
…
And make sure the original data is unchanged using the dim() function (short for dimensions), which should show us that we still have 344 observations of 8 variables:

dim(penguins)

[1] 344   8

select() can be used in many different ways that we do not have time for now. But briefly, note that we could have gotten the same resulting data frame by specifying which variables we didn’t want to include using - before the variable name:

select(penguins, -island, -flipper_length_mm, -body_mass_g, -sex, -year)

# A tibble: 344 × 3
   species bill_length_mm bill_depth_mm
   <fct>            <dbl>         <dbl>
 1 Adelie            39.1          18.7
 2 Adelie            39.5          17.4
 3 Adelie            40.3          18  
 4 Adelie            NA            NA  
 5 Adelie            36.7          19.3
 6 Adelie            39.3          20.6
 7 Adelie            38.9          17.8
 8 Adelie            39.2          19.6
 9 Adelie            34.1          18.1
10 Adelie            42            20.2
# … with 334 more rows

mutate

We will often want to perform some sort of transformation on our data. For instance, converting a variable in to different units, or performing a log transformation. As with select(), mutate() takes the data frame we want to manipulate as the first argument, followed by an expression containing the instructions for what we want to achieve. Let’s use mutate() to convert body_mass_g in to kilograms.

mutate(penguins, body_mass_g/1000)

# A tibble: 344 × 9
   species island    bill_length_mm bill_depth_mm flipper_length_mm body_mass_g
   <fct>   <fct>              <dbl>         <dbl>             <int>       <int>
 1 Adelie  Torgersen           39.1          18.7               181        3750
 2 Adelie  Torgersen           39.5          17.4               186        3800
 3 Adelie  Torgersen           40.3          18                 195        3250
 4 Adelie  Torgersen           NA            NA                  NA          NA
 5 Adelie  Torgersen           36.7          19.3               193        3450
 6 Adelie  Torgersen           39.3          20.6               190        3650
 7 Adelie  Torgersen           38.9          17.8               181        3625
 8 Adelie  Torgersen           39.2          19.6               195        4675
 9 Adelie  Torgersen           34.1          18.1               193        3475
10 Adelie  Torgersen           42            20.2               190        4250
# … with 334 more rows, and 3 more variables: sex <fct>, year <int>,
#   body_mass_g/1000 <dbl>
…
x != y: is x not equal to y

Be careful to note that == is not the same as =. In R the single equals (=) is often used within functions, whereas the double equals (==) is used to test for equivalence (i.e. how you might normally think of = symbol).

Logical operators

x | y: is x OR y true?

x & y: are x AND y true?

Perhaps we are only interested in female penguins? Again, filter() takes the data frame we are to manipulate as its first argument, followed by the conditions which must be met for inclusion.

filter(penguins, sex == 'female')

# A tibble: 165 × 8
   species island    bill_length_mm bill_depth_mm flipper_length_mm body_mass_g
   <fct>   <fct>              <dbl>         <dbl>             <int>       <int>
 1 Adelie  Torgersen           39.5          17.4               186        3800
 2 Adelie  Torgersen           40.3          18                 195        3250
 3 Adelie  Torgersen           36.7          19.3               193        3450
 4 Adelie  Torgersen           38.9          17.8               181        3625
 5 Adelie  Torgersen           41.1          17.6               182        3200
 6 Adelie  Torgersen           36.6          17.8               185        3700
 7 Adelie  Torgersen           38.7          19                 195        3450
 8 Adelie  Torgersen           34.4          18.4               184        3325
 9 Adelie  Biscoe              37.8          18.3               174        3400
10 Adelie  Biscoe              35.9          19.2               189        3800
# … with 155 more rows, and 2 more variables: sex <fct>, year <int>

Or… maybe we are interested in all penguins with a flipper length greater than 200mm?

filter(penguins, flipper_length_mm > 200)

# A tibble: 148 × 8
   species island    bill_length_mm bill_depth_mm flipper_length_mm body_mass_g
   <fct>   <fct>              <dbl>         <dbl>             <int>       <int>
 1 Adelie  Dream               35.7          18                 202        3550
 2 Adelie  Dream               41.1          18.1               205        4300
 3 Adelie  Dream               40.8          18.9               208        4300
 4 Adelie  Biscoe              41            20                 203        4725
 5 Adelie  Torgersen           41.4          18.5               202        3875
 6 Adelie  Torgersen           44.1          18                 210        4000
 7 Adelie  Dream               41.5          18.5               201        4000
 8 Gentoo  Biscoe              46.1          13.2               211        4500
 9 Gentoo  Biscoe              50            16.3               230        5700
10 Gentoo  Biscoe              48.7          14.1               210        4450
# … with 138 more rows, and 2 more variables: sex <fct>, year <int>

Finally, we can combine conditions. For instance, if we want to subset the data for male Adelie penguins we separate each condition with a comma.

filter(penguins, species == 'Adelie', sex == 'male')

# A tibble: 73 × 8
   species island    bill_length_mm bill_depth_mm flipper_length_mm body_mass_g
   <fct>   <fct>              <dbl>         <dbl>             <int>       <int>
 1 Adelie  Torgersen           39.1          18.7               181        3750
 2 Adelie  Torgersen           39.3          20.6               190        3650
 3 Adelie  Torgersen           39.2          19.6               195        4675
 4 Adelie  Torgersen           38.6          21.2               191        3800
 5 Adelie  Torgersen           34.6          21.1               198        4400
 6 Adelie  Torgersen           42.5          20.7               197        4500
 7 Adelie  Torgersen           46            21.5               194        4200
 8 Adelie  Biscoe              37.7          18.7               180        3600
 9 Adelie  Biscoe              38.2          18.1               185        3950
10 Adelie  Biscoe              38.8          17.2               180        3800
# … with 63 more rows, and 2 more variables: sex <fct>, year <int>
We can also specify logical conditions to combine criteria. Let’s say we want to only look at penguins with really big or really small bills. We use the | (OR) operator in the call to filter(). Remember that if we want to save the new ‘filtered’ data frame we have to assign the results to a new object.

extreme_bills <- filter(penguins_kg, bill_area > 800 | bill_area < 660)

%>% or |>: the pipe

What if we want to select() only a few of the variables, mutate() the data and filter()? The ‘pipe’ symbol %>% or |> allows us to link multiple functions together in a few lines of code in a way that is easily readable.

We can think of how %>% works as "take the thing on the left hand side (i.e. a data frame), and perform the thing on the right.

For instance, we can filter our penguins data frame by putting it through the %>%. Note that we no longer have to specify the data frame as the first argument in filter():

penguins %>% filter(species == 'Adelie', sex == 'male')

# A tibble: 73 × 8
   species island    bill_length_mm bill_depth_mm flipper_length_mm body_mass_g
   <fct>   <fct>              <dbl>         <dbl>             <int>       <int>
 1 Adelie  Torgersen           39.1          18.7               181        3750
 2 Adelie  Torgersen           39.3          20.6               190        3650
 3 Adelie  Torgersen           39.2          19.6               195        4675
 4 Adelie  Torgersen           38.6          21.2               191        3800
 5 Adelie  Torgersen           34.6          21.1               198        4400
 6 Adelie  Torgersen           42.5          20.7               197        4500
 7 Adelie  Torgersen           46            21.5               194        4200
 8 Adelie  Biscoe              37.7          18.7               180        3600
 9 Adelie  Biscoe              38.2          18.1               185        3950
10 Adelie  Biscoe              38.8          17.2               180        3800
# … with 63 more rows, and 2 more variables: sex <fct>, year <int>

Now lets combine dplyr functions to first mutate() the data to create a new variable called scaled_flipper, and then filter() the data based on this new variable.

penguins %>% 
  mutate(scaled_flipper = flipper_length_mm/body_mass_g) %>% 
  filter(scaled_flipper > 0.05)

# A tibble: 147 × 9
   species island    bill_length_mm bill_depth_mm flipper_length_mm body_mass_g
   <fct>   <fct>              <dbl>         <dbl>             <int>       <int>
 1 Adelie  Torgersen           40.3          18                 195        3250
 2 Adelie  Torgersen           36.7          19.3               193        3450
 3 Adelie  Torgersen           39.3          20.6               190        3650
 4 Adelie  Torgersen           34.1          18.1               193        3475
 5 Adelie  Torgersen           37.8          17.1               186        3300
 6 Adelie  Torgersen           41.1          17.6               182        3200
 7 Adelie  Torgersen           38.6          21.2               191        3800
 8 Adelie  Torgersen           38.7          19                 195        3450
 9 Adelie  Torgersen           34.4          18.4               184        3325
10 Adelie  Biscoe              37.8          18.3               174        3400
# … with 137 more rows, and 3 more variables: sex <fct>, year <int>,
#   scaled_flipper <dbl>
…
